{
  "name": "plugin-sample",
  "author": "Vanessa",
  "url": "https://github.com/siyuan-note/plugin-sample",
  "version": "0.1.9",
  "minAppVersion": "2.9.0",
  "backends": ["windows", "linux", "darwin"],
  "frontends": ["desktop"],
  "displayName": {
    "default": "Plugin Sample",
    "zh_CN": "插件示例"
  },
  "description": {
    "default": "This is a plugin sample",
    "zh_CN": "这是一个插件示例"
  },
  "readme": {
    "default": "README.md",
    "zh_CN": "README_zh_CN.md"
  },
  "funding": {
    "openCollective": "",
    "patreon": "",
    "github": "",
    "custom": [
      "https://ld246.com/sponsor"
    ]
  }
}
